{"meta": {"pagination": {"total": 1880, "pages": 94, "page": 1, "limit": 20, "links": {"previous": null, "current": "https://gorest.co.in/public/v1/users?page=1", "next": "https://gorest.co.in/public/v1/users?page=2"}}}, "data": [{"id": 18, "name": "Rep. Kali Iyer1", "email": "kali_rep_iyer@spencer.info", "gender": "male", "status": "inactive"}, {"id": 19, "name": "Alok Mararaaaaaa", "email": "marar_alok@cassin.io", "gender": "female", "status": "inactive"}, {"id": 44, "name": "Sen. Charvi Achari1", "email": "achari_charvi_sen@mitchell.net", "gender": "female", "status": "inactive"}, {"id": 23, "name": "Atmananda Khanna1", "email": "atmananda_khanna@hand-moen.com", "gender": "female", "status": "inactive"}, {"id": 24, "name": "Dhaanyalakshmi Naik", "email": "naik_dhaanyalakshmi@kiehn-metz.net", "gender": "male", "status": "inactive"}, {"id": 27, "name": "Giriraaj Jain1", "email": "giriraaj_jain@ankunding.info", "gender": "female", "status": "inactive"}, {"id": 28, "name": "Gajabahu Rana I1", "email": "rana_i_gajabahu@dicki.io", "gender": "male", "status": "inactive"}, {"id": 34, "name": "Fr. Krishnadas Verma", "email": "fr_verma_krishnadas@price.co", "gender": "female", "status": "active"}, {"id": 35, "name": "Shankar Ahluwalia Ir", "email": "ahluwalia_shankar_i@langosh.cor", "gender": "male", "status": "active"}, {"id": 47, "name": "Aadrika Kocchar Newly", "email": "kocchar_aadrika@g.com", "gender": "female", "status": "inactive"}, {"id": 38, "name": "232", "email": "kaniyar_gangesh_dc@orn.org", "gender": "male", "status": "active"}, {"id": 41, "name": "The Hon. Yoginder Malik", "email": "yoginder_malik_the_hon@osinski.io", "gender": "female", "status": "inactive"}, {"id": 42, "name": "Ekaksh Kaul", "email": "kaul_ekaksh@friesen.co", "gender": "male", "status": "inactive"}, {"id": 50, "name": "aa", "email": "aa@g", "gender": "male", "status": "active"}, {"id": 61, "name": "Arunita", "email": "arunita.kanjilal@indianidol.com", "gender": "female", "status": "active"}, {"id": 70, "name": "Shakti Saini", "email": "saini_shakti@jacob.net", "gender": "female", "status": "active"}, {"id": 72, "name": "aa", "email": "msdh@gmail", "gender": "male", "status": "active"}, {"id": 20, "name": "Chandan Khan1", "email": "chandan_khan@koss.io1", "gender": "female", "status": "active"}, {"id": 17, "name": "sanfoor", "email": "patel_triloki_nath@cartwright-parisian.com", "gender": "female", "status": "inactive"}, {"id": 52, "name": "Kila-1345", "email": "agarwal_gaurang@marvin-streich.biz", "gender": "female", "status": "inactive"}]}